<?xml version="1.0" encoding="utf-8"?>
<!-- Generator: Adobe Illustrator 19.0.1, SVG Export Plug-In . SVG Version: 6.00 Build 0)  -->
<svg version="1.1" id="Слой_1" xmlns="http://www.w3.org/2000/svg" xmlns:xlink="http://www.w3.org/1999/xlink" x="0px" y="0px"
	 viewBox="-487 736 24 30" style="enable-background:new -487 736 24 30;" xml:space="preserve">
<g>
	<g>
		<path d="M-469.5,752c-2,0-3.5-1.6-3.5-3c0-0.3,0.2-0.5,0.5-0.5h0.7c0.3-0.6,1.1-2,2.3-2c4,0,6.5,2.4,6.5,3.5c0,0.7-0.3,1.5-1,1.5
			c-0.3,0-0.5-0.1-1-0.5C-465.7,751.3-467.9,752-469.5,752z M-471.9,749.5c0.3,0.7,1.2,1.5,2.4,1.5c1,0,2.5-0.4,3.4-0.7
			c-0.8-0.4-1.6-0.8-2.4-0.8h-3c0,0,0,0,0,0H-471.9z M-470.7,748.5h2.2c1.4,0,2.9,1,3.8,1.6c0.2,0.1,0.4,0.3,0.6,0.4
			c0-0.1,0.1-0.3,0.1-0.5c-0.1-0.3-1.8-2.5-5.5-2.5C-469.9,747.5-470.4,748-470.7,748.5z"/>
	</g>
	<g>
		<path d="M-476.5,748.5c-0.1,0-0.2,0-0.2-0.1c-0.2-0.1-0.3-0.4-0.2-0.7c0-0.1,1-1.8,3.4-1.8c2.3,0,3.2,0.5,3.3,0.6
			c0.2,0.1,0.3,0.5,0.2,0.7c-0.1,0.2-0.4,0.3-0.7,0.2c0,0-0.8-0.4-2.7-0.4c-1.9,0-2.6,1.2-2.6,1.2
			C-476.2,748.4-476.3,748.5-476.5,748.5z"/>
	</g>
	<g>
		<path d="M-473.5,758.5c-2.7,0-5.5-1.1-7.9-2.1c-2-0.8-4.1-1.7-4.7-1.1c-0.1,0.1-0.4,0.2-0.6,0.1c-0.2-0.1-0.3-0.3-0.3-0.5
			c0-0.9,0.6-2.5,2.5-2.5c0.9,0,2-0.3,2.9-0.5c1-0.2,2.1-0.5,3.1-0.5c0.3,0,0.5,0.2,0.5,0.5s-0.2,0.5-0.5,0.5
			c-0.9,0-1.8,0.2-2.8,0.5c-1,0.3-2.1,0.5-3.2,0.5c-0.7,0-1.1,0.3-1.3,0.7c1.2-0.1,2.8,0.5,4.7,1.3c2.4,0.9,5.1,2,7.5,2
			c2.4,0,3.5-3.9,3.5-4.5c0-0.7-0.4-1.2-0.4-1.2c-0.2-0.2-0.1-0.5,0.1-0.7c0.2-0.2,0.5-0.1,0.7,0.1c0,0,0.6,0.8,0.6,1.8
			C-469,753.9-470.2,758.5-473.5,758.5z"/>
	</g>
	<g>
		<path d="M-473.5,752.5c-0.1,0-0.2,0-0.3-0.1c-0.1-0.1-3.2-2-3.2-5.4c0-2.8-0.8-5.5-4.6-9.4c-0.2,0.1-0.4,0.2-0.4,0.4
			c0,0.3-0.2,0.5-0.5,0.5c-0.2,0-0.5,0.1-0.5,0.5c0,0.1-0.1,0.3-0.1,0.3c-0.2,0.2-0.9,1-0.9,1.7c0,0.1-0.1,0.3-0.1,0.4
			c-0.2,0.2-0.9,1-0.9,1.6c0,0.1,0.4,0.3,0.7,0.5c0.9,0.5,2.3,1.4,2.3,3.5c0,3.1,1.1,4.5,3.5,4.5c0.3,0,0.5,0.2,0.5,0.5
			s-0.2,0.5-0.5,0.5c-3,0-4.5-1.9-4.5-5.5c0-1.6-1-2.2-1.8-2.7c-0.6-0.3-1.2-0.7-1.2-1.3c0-1,0.7-1.9,1-2.2c0.1-0.9,0.7-1.7,1-2
			c0.1-0.7,0.6-1.1,1.1-1.2c0.2-0.7,0.9-1,1.3-1.1c0.2,0,0.3,0,0.5,0.1c4.3,4.3,5.1,7.2,5.1,10.4c0,2.8,2.7,4.6,2.8,4.6
			c0.2,0.1,0.3,0.5,0.2,0.7C-473.2,752.4-473.3,752.5-473.5,752.5z"/>
	</g>
	<g>
		<path d="M-473.5,747c-0.3,0-0.5-0.2-0.5-0.5c0-2.7,1.2-3.6,2.3-4.4c1-0.7,1.7-1.3,1.7-3.1c0-1.3-0.2-1.5-0.2-1.5c0,0-0.1,0-0.2,0
			l-0.1,0c-0.8,0-1.4,1.2-1.5,1.7c-0.1,0.3-0.4,0.4-0.6,0.3c-0.3-0.1-0.4-0.4-0.3-0.6c0-0.1,0.8-2.3,2.5-2.3c0.3,0,0.7,0,1,0.3
			c0.4,0.3,0.5,1,0.5,2.2c0,2.3-1.1,3.1-2.1,3.9c-1,0.8-1.9,1.4-1.9,3.6C-473,746.8-473.2,747-473.5,747z"/>
	</g>
	<g>
		<path d="M-477.5,742c-0.1,0-0.2,0-0.3-0.1c-0.2-0.1-0.3-0.5-0.2-0.7c0.9-1.4,3.1-4.7,4.4-4.7c1.5,0,2,1.3,2,1.3
			c0.1,0.3-0.1,0.5-0.3,0.6c-0.3,0.1-0.5-0.1-0.6-0.3c0-0.1-0.3-0.7-1-0.7c-0.5,0-2.2,2-3.6,4.3C-477.2,741.9-477.3,742-477.5,742z"
			/>
	</g>
	<g>
		<circle cx="-473.5" cy="748" r="0.5"/>
	</g>
	<g>
		<path d="M-482.5,759.5c-0.1,0-0.2,0-0.2-0.1l-2-1c-0.2-0.1-0.3-0.4-0.2-0.7c0.1-0.2,0.4-0.3,0.7-0.2l1.7,0.9l2.8-1.8
			c0.2-0.2,0.5-0.1,0.7,0.1c0.2,0.2,0.1,0.5-0.1,0.7l-3,2C-482.3,759.5-482.4,759.5-482.5,759.5z"/>
	</g>
	<g>
		<path d="M-484.5,757.5h-2c-0.3,0-0.5-0.2-0.5-0.5s0.2-0.5,0.5-0.5h1.9l2.9-1c0.3-0.1,0.5,0.1,0.6,0.3c0.1,0.3-0.1,0.5-0.3,0.6
			l-3,1C-484.4,757.5-484.4,757.5-484.5,757.5z"/>
	</g>
</g>
</svg>
